gateware/noiseshaper_test.vcd
$comment Generated by nMigen $end
$date 2020-07-18 11:30:15.519230 $end
$timescale 100 ps $end
$scope module top $end
$var wire 1 ! clk $end
$var wire 1 " rst $end
$var wire 18 # integrator_0 $end
$var wire 18 $ input $end
$var string 1 % quantized_value $end
$var wire 18 & integrator_2 $end
$var wire 18 ' integrator_1 $end
$var wire 18 ( integrator_4 $end
$var wire 18 ) integrator_3 $end
$var wire 18 * integrator_5 $end
$var wire 4 + output $end
$upscope $end
$enddefinitions $end
#0
$dumpvars
0!
0"
b0 #
b0 $
s-1.0 %
b0 &
b0 '
b0 (
b0 )
b0 *
b0 +
$end
#100
1!
#150
0!
b10101001010 )
b110111011111 (
b101001 '
b100111111 &
b111 +
s-0.0666656494140625 %
#200
1!
#250
0!
b11010110011 )
b10 #
b1001110011000 (
b101101 '
b110111011111 *
b101010110 &
b111001011 $
#300
1!
#349
0!
b111111110011001111 )
b111111111111111100 #
b111111101011100101 (
b111111111111011110 '
b1010111010001 *
b111111111011110010 &
b1110010101 $
b1000 +
s0.0666656494140625 %
#399
1!
#449
0!
b111111101010101010 )
b111111111111111110 #
b111111000110101111 (
b111111111111011001 '
b111111111100101000 *
b111111111011100011 &
b10101100000 $
#499
1!
#549
0!
b10110101100 )
b100 #
b110001110101 (
b110011 '
b111111011100001000 *
b110010000 &
b11100101011 $
b111 +
s-0.0666656494140625 %
#600
1!
#650
0!
b100101000000 )
b11 #
b1100111000011 (
b1000000 '
b1001101011000 *
b111101011 &
b100011110101 $
b1000 +
s0.0666656494140625 %
#700
1!
#750
0!
b111111111110110001 )
b111111111111111101 #
b1101110110 (
b111111111111110001 '
b10001101010010 *
b111111111110000011 &
b101010111111 $
b1001 +
s0.1999969482421875 %
#800
1!
#850
0!
b111111001011110110 )
b111111111111111001 #
b111101111011101001 (
b111111111110011001 '
b111101001111 *
b111111110011110001 &
b110010001001 $
b1000 +
s0.0666656494140625 %
#900
1!
#950
0!
b111111101100100001 )
b1 #
b111110111000111110 (
b111111111111101010 '
b111110101111101100 *
b111111111101101110 &
b111001010010 $
#1000
1!
#1050
0!
b100100000001 )
b101 #
b1010000010111 (
b1001101 '
b111111101111101111 *
b1001010100 &
b1000000011011 $
b111 +
s-0.0666656494140625 %
#1100
1!
#1150
0!
b110011100100 )
b100 #
b10010010011001 (
b1011000 '
b10010000010001 *
b1010100011 &
b1000111100100 $
#1200
1!
#1250
0!
b111111100010110111 )
b111111111111111000 #
b111111001011110100 (
b111111111110110101 '
b11011110011101 *
b111111110110110100 &
b1001110101100 $
b1001 +
s0.1999969482421875 %
#1300
1!
#1350
0!
b111111001110110100 )
b111111111111111011 #
b111101111010101101 (
b111111111110101000 '
b100001011100 *
b111111110101101111 &
b1010101110100 $
b1000 +
s0.0666656494140625 %
#1400
1!
#1450
0!
b111111111001101000 )
b10 #
b111111011000111010 (
b10 '
b111111010001100011 *
b101000 &
b1011100111011 $
b111 +
s-0.0666656494140625 %
#1500
1!
#1550
0!
b110010011000 )
b110 #
b1111011011100 (
b1100100 '
b110100011000 *
b1100001000 &
b1100100000010 $
b1000 +
s0.0666656494140625 %
#1600
1!
#1650
0!
b10111100010 )
b111111111111111111 #
b1010000000011 (
b11100 '
b11100001000110 *
b11010010 &
b1101011001000 $
#1700
1!
#1750
0!
b111111100101101111 )
b111111111111111011 #
b111111001010101000 (
b111111111111000100 '
b11000010001101 *
b111111111000110001 &
b1110010001101 $
b1001 +
s0.1999969482421875 %
#1800
1!
#1850
0!
b111111011011110111 )
b111111111111111101 #
b111110011010011010 (
b111111111111000001 '
b1000010111001 *
b111111111000101000 &
b1111001010001 $
#1900
1!
#1950
0!
b111111011 )
b11 #
b11110001 (
b11011 '
b10101110000 *
b11011101 &
b10000000010101 $
#2000
1!
#2050
0!
b10110010100 )
b111000110111 (
b101000 '
b10000100110001 *
b100111000 &
b10000111011000 $
b1000 +
s0.0666656494140625 %
#2100
1!
#2150
0!
b11010010111 )
b10 #
b1001110101001 (
b101100 '
b11000100011000 *
b101001110 &
b10001110011010 $
#2200
1!
#2250
0!
b111111110010101101 )
b111111111111111100 #
b111111101010000110 (
b111111111111011101 '
b11100011001011 *
b111111111011101010 &
b10010101011011 $
b1001 +
s0.1999969482421875 %
#2300
1!
#2350
0!
b111111101010000100 )
b111111111111111110 #
b111111000101000000 (
b111111111111011001 '
b10000110100111 *
b111111111011011100 &
b10011100011011 $
#2400
1!
#2450
0!
b10110000100 )
b100 #
b101111111000 (
b110010 '
b1100101101000 *
b110001001 &
b10100011011011 $
b1000 +
s0.0666656494140625 %
#2500
1!
#2550
0!
b100100010100 )
b11 #
b1100100111010 (
b111111 '
b11010110011110 *
b111100011 &
b10101010011001 $
b1001 +
s0.1999969482421875 %
#2600
1!
#2650
0!
b111111111110000001 )
b111111111111111101 #
b1011011111 (
b111111111111101111 '
b100010101111111 *
b111111111101111010 &
b10110001010110 $
b1010 +
s0.3333282470703125 %
#2700
1!
#2750
0!
b111111001011000001 )
b111111111111111001 #
b111101111001000011 (
b111111111110011000 '
b11000101100000 *
b111111110011100110 &
b10111000010010 $
b1001 +
s0.1999969482421875 %
#2800
1!
#2850
0!
b111111101011100101 )
b1 #
b111110110110000111 (
b111111111111101001 '
b110111100000 *
b111111111101100011 &
b10111111001100 $
#2900
1!
#2950
0!
b100011000000 )
b101 #
b1001101001100 (
b1001011 '
b1110111000010 *
b1001001000 &
b11000110000110 $
b1000 +
s0.0666656494140625 %
#3000
1!
#3050
0!
b110010011101 )
b100 #
b10001110111101 (
b1010110 '
b100010111000000 *
b1010010101 &
b11001100111110 $
#3100
1!
#3150
0!
b111111100001101000 )
b111111111111111000 #
b111111001000000100 (
b111111111110110011 '
b101100100101001 *
b111111110110100100 &
b11010011110101 $
b1010 +
s0.3333282470703125 %
#3200
1!
#3250
0!
b111111001101011110 )
b111111111111111011 #
b111101110110100110 (
b111111111110100110 '
b10100111000010 *
b111111110101011110 &
b11011010101011 $
b1001 +
s0.1999969482421875 %
#3300
1!
#3350
0!
b111111111000001100 )
b10 #
b111111010100011101 (
b0 '
b1010110011111 *
b10111 &
b11100001011111 $
b1000 +
s0.0666656494140625 %
#3400
1!
#3450
0!
b110000110110 )
b110 #
b1110110101001 (
b1100010 '
b10111000101000 *
b1011110101 &
b11101000010010 $
b1001 +
s0.1999969482421875 %
#3500
1!
#3550
0!
b10101110111 )
b111111111111111111 #
b1001010111001 (
b11001 '
b101100100101100 *
b10111110 &
b11101111000011 $
#3600
1!
#3650
0!
b111111100011111100 )
b111111111111111011 #
b111111000101000011 (
b111111111111000001 '
b101000101000101 *
b111111111000011010 &
b11110101110011 $
b1010 +
s0.3333282470703125 %
#3700
1!
#3750
0!
b111111011001111010 )
b111111111111111101 #
b111110010100011011 (
b111111111110111110 '
b11000101000000 *
b111111111000010000 &
b11111100100001 $
#3800
1!
#3850
0!
b101110110 )
b11 #
b111111111101010101 (
b11000 '
b10010111000110 *
b11000011 &
b100000011001101 $
#3900
1!
#3950
0!
b10100000101 )
b110001111111 (
b100101 '
b100000101010000 *
b100011101 &
b100001001111000 $
b1001 +
s0.1999969482421875 %
#4000
1!
#4050
0!
b11000000000 )
b1 #
b1000111010010 (
b100111 '
b101000100000001 *
b100110010 &
b100010000100001 $
#4100
1!
#4150
0!
b111111110000001100 )
b111111111111111100 #
b111111100010010010 (
b111111111111011000 '
b101100001111011 *
b111111111011001010 &
b100010111001001 $
b1010 +
s0.3333282470703125 %
#4200
1!
#4250
0!
b111111100111011000 )
b111111111111111110 #
b111110111100101100 (
b111111111111010100 '
b100000100011110 *
b111111111010111010 &
b100011101101110 $
#4300
1!
#4350
0!
b10011001101 )
b100 #
b100111000011 (
b101110 '
b11100010100010 *
b101100110 &
b100100100010010 $
b1001 +
s0.1999969482421875 %
#4400
1!
#4450
0!
b100001010011 )
b10 #
b1011011100010 (
b111010 '
b101010010011010 *
b110111110 &
b100101010110100 $
#4500
1!
#4550
0!
b111111111010110101 )
b111111111111111100 #
b1100101 (
b111111111111101001 '
b110010000111010 *
b111111111101010010 &
b100110001010100 $
#4600
1!
#4650
0!
b111111110001111101 )
b111111111111111110 #
b111111011101100110 (
b111111111111100101 '
b100111111011010 *
b111111111100111010 &
b100110111110010 $
#4700
1!
#4750
0!
b111111110011010011 )
b111111011000110110 (
b111111111111101011 '
b100011111010110 *
b111111111101100110 &
b100111110001110 $
#4800
1!
#4850
0!
b111111110110000010 )
b111111011111010010 (
b111111111111110000 '
b100100000000010 *
b111111111110001101 &
b101000100101000 $
#4900
1!
#4950
0!
b111111111000101101 )
b111111100111011011 (
b111111111111110100 '
b100101100111010 *
b111111111110101110 &
b101001011000000 $
#5000
1!
#5050
0!
b111111111011010010 )
b111111101111100010 (
b111111111111111000 '
b100111011110100 *
b111111111111001101 &
b101010001010110 $
#5100
1!
#5150
0!
b111111111101110100 )
b111111111111111111 #
b111111110111100001 (
b111111111111111100 '
b101001010101111 *
b111111111111101100 &
b101010111101010 $
#5200
1!
#5249
0!
b10101 )
b111111111111011100 (
b0 '
b101011001100000 *
b1010 &
b101011101111011 $
#5299
1!
#5349
0!
b10110101 )
b111010011 (
b101 '
b101101000001010 *
b101000 &
b101100100001010 $
#5399
1!
#5449
0!
b101010011 )
b1111000111 (
b1001 '
b101110110101101 *
b1000111 &
b101101010010111 $
#5499
1!
#5549
0!
b111110010 )
b10110110111 (
b1101 '
b110000101001011 *
b1100101 &
b101110000100010 $
#5599
1!
#5649
0!
b1010010000 )
b0 #
b11110100111 (
b10001 '
b110010011100011 *
b10000011 &
b101110110101010 $
b1010 +
s0.3333282470703125 %
#5699
1!
#5749
0!
b1100101100 )
b1 #
b100110010011 (
b10100 '
b110100001111000 *
b10100001 &
b101111100110000 $
#5799
1!
#5849
0!
b111111100100110100 )
b111111111111111011 #
b111110111110111011 (
b111111111111000110 '
b110110000000110 *
b111111111000111111 &
b110000010110100 $
b1011 +
s0.4666595458984375 %
#5899
1!
#5949
0!
b111111011011111010 )
b111111111111111101 #
b111110011000110000 (
b111111111111000001 '
b101001111001111 *
b111111111000101111 &
b110001000110101 $
#5999
1!
#6049
0!
b111100100 )
b11 #
b10100011 (
b11010 '
b100101100000011 *
b11010111 &
b110001110110011 $
b1010 +
s0.3333282470703125 %
#6099
1!
#6149
0!
b10101011010 )
b1 #
b110110010111 (
b100110 '
b110011010101110 *
b100101100 &
b110010100101111 $
#6199
1!
#6249
0!
b111111101110101100 )
b111111111111111100 #
b111111011011101010 (
b111111111111010101 '
b111010111111011 *
b111111111010111101 &
b110011010101000 $
b1011 +
s0.4666595458984375 %
#6299
1!
#6349
0!
b111111100101100100 )
b111111111111111101 #
b111110110110111001 (
b111111111111010001 '
b110000101000001 *
b111111111010100010 &
b110100000011111 $
#6399
1!
#6449
0!
b10000111111 )
b100 #
b100000011000 (
b101001 '
b101100011100010 *
b101001010 &
b110100110010011 $
b1010 +
s0.3333282470703125 %
#6499
1!
#6549
0!
b11110110010 )
b10 #
b1010011110100 (
b110110 '
b111010001110010 *
b110011101 &
b110101100000100 $
#6599
1!
#6649
0!
b111111110111111110 )
b111111111111111100 #
b111111111000111010 (
b111111111111100101 '
b1000001110011011 *
b111111111100101111 &
b110110001110011 $
#6699
1!
#6749
0!
b111111101110110100 )
b111111010011111011 (
b111111111111100000 '
b110111011001001 *
b111111111100010011 &
b110110111011111 $
b1011 +
s0.4666595458984375 %
#6799
1!
#6849
0!
b111111101111110111 )
b111111111111111110 #
b111111001110001111 (
b111111111111100101 '
b110011001010000 *
b111111111100111011 &
b110111101001000 $
#6899
1!
#6949
0!
b11100100101 )
b100 #
b1000010101100 (
b111100 '
b110011000001001 *
b111011101 &
b111000010101110 $
b1010 +
s0.3333282470703125 %
#6999
1!
#7049
0!
b101010010000 )
b11 #
b1110111100101 (
b1001000 '
b1000010010001010 *
b1000101000 &
b111001000010001 $
b1011 +
s0.4666595458984375 %
#7099
1!
#7149
0!
b11010000 )
b111111111111111101 #
b11100011011 (
b111111111111111000 '
b1001010000011010 *
b111111111110110111 &
b111001101110010 $
b1100 +
s0.600006103515625 %
#7199
1!
#7249
0!
b111111001111101001 )
b111111111111111001 #
b111110001000000011 (
b111111111110011111 '
b111111100101101 *
b111111110100011101 &
b111010011001111 $
b1011 +
s0.4666595458984375 %
#7299
1!
#7349
0!
b111111101111101001 )
b1 #
b111111000011010000 (
b111111111111101111 '
b101101011001011 *
b111111111110010010 &
b111011000101001 $
b1010 +
s0.3333282470703125 %
#7399
1!
#7449
0!
b100110011110 )
b101 #
b1011000011111 (
b1010000 '
b110100111001111 *
b1001110000 &
b111011110000001 $
b1011 +
s0.4666595458984375 %
#7499
1!
#7549
0!
b1011000000 )
b111111111111111110 #
b101001010111 (
b111 '
b1001000011101110 *
b110111 &
b111100011010101 $
b1100 +
s0.600006103515625 %
#7599
1!
#7649
0!
b111111011000100100 )
b111111111111111010 #
b111110100001101110 (
b111111111110101110 '
b1000011110110011 *
b111111110110001110 &
b111101000100110 $
#7699
1!
#7749
0!
b111111111000010100 )
b10 #
b111111011110010101 (
b111111111111111101 '
b110011011010001 *
b111111111111111100 &
b111101101110100 $
#7799
1!
#7849
0!
b100101001 )
b100001110 (
b1011 '
b111011000111111 *
b1011000 &
b111110010111111 $
#7899
1!
#7949
0!
b1000000100 )
b10101111100 (
b1101 '
b1000000101111110 *
b1101110 &
b111111000000111 $
#7999
1!
#8049
0!
b1010000110 )
b11110000101 (
b10000 '
b1000011110001110 *
b10000000 &
b111111101001100 $
b1011 +
s0.4666595458984375 %
#8099
1!
#8149
0!
b1100000001 )
b0 #
b100100100000 (
b10011 '
b1000101100001101 *
b10010111 &
b1000000010001101 $
#8199
1!
#8249
0!
b111111100011101011 )
b111111111111111011 #
b111110111011101100 (
b111111111111000011 '
b1000111000000101 *
b111111111000110000 &
b1000000111001011 $
b1100 +
s0.600006103515625 %
#8299
1!
#8349
0!
b111111011010010110 )
b111111111111111101 #
b111110010100000111 (
b111111111110111110 '
b111010100100111 *
b111111111000011001 &
b1000001100000101 $
#8399
1!
#8449
0!
b101100010 )
b11 #
b111111111100100010 (
b10111 '
b110101110110101 *
b10111101 &
b1000010000111101 $
#8499
1!
#8549
0!
b10010111101 )
b101110111101 (
b100010 '
b1000011010111100 *
b100001101 &
b1000010101110001 $
b1011 +
s0.4666595458984375 %
#8599
1!
#8649
0!
b10110000111 )
b1 #
b1000001110111 (
b100100 '
b1001010101100011 *
b100011000 &
b1000011010100001 $
#8699
1!
#8749
0!
b111111101101100010 )
b111111111111111011 #
b111111011010011110 (
b111111111111010011 '
b1001101111000011 *
b111111111010101000 &
b1000011111001110 $
b1100 +
s0.600006103515625 %
#8799
1!
#8849
0!
b111111100011111110 )
b111111111111111101 #
b111110110010011111 (
b111111111111001110 '
b1000001101001010 *
b111111111010001110 &
b1000100011111000 $
#8899
1!
#8949
0!
b1111000010 )
b11 #
b11010011101 (
b100110 '
b111100110110001 *
b100110001 &
b1000101000011110 $
b1011 +
s0.4666595458984375 %
#8999
1!
#9049
0!
b11100010111 )
b10 #
b1001100100000 (
b110001 '
b1001010010001000 *
b101111111 &
b1000101101000000 $
#9099
1!
#9149
0!
b111111110101000100 )
b111111111111111100 #
b111111110000000101 (
b111111111111100000 '
b1010001100000100 *
b111111111100001001 &
b1000110001011111 $
#9199
1!
#9249
0!
b111111101011011001 )
b111111001001100010 (
b111111111111011010 '
b1000110101111100 *
b111111111011101000 &
b1000110101111011 $
b1100 +
s0.600006103515625 %
#9299
1!
#9349
0!
b111111101011111101 )
b111111111111111110 #
b111111000010010001 (
b111111111111011111 '
b1000010001001000 *
b111111111100001010 &
b1000111010010010 $
#9399
1!
#9449
0!
b11000001011 )
b100 #
b110101001010 (
b110101 '
b1000001101000101 *
b110100110 &
b1000111110100110 $
b1011 +
s0.4666595458984375 %
#9499
1!
#9549
0!
b100101010101 )
b11 #
b1101000011110 (
b1000000 '
b1010000100001010 *
b111101011 &
b1001000010110111 $
b1100 +
s0.600006103515625 %
#9599
1!
#9649
0!
b111111111101110100 )
b111111111111111101 #
b1011101100 (
b111111111111101111 '
b1010111111011101 *
b111111111101110100 &
b1001000111000100 $
b1101 +
s0.73333740234375 %
#9699
1!
#9749
0!
b111111001001101101 )
b111111111111111001 #
b111101110101101100 (
b111111111110010101 '
b1001101000101110 *
b111111110011010011 &
b1001001011001101 $
b1100 +
s0.600006103515625 %
#9799
1!
#9849
0!
b111111101001001010 )
b0 #
b111110101111010000 (
b111111111111100101 '
b111010100001010 *
b111111111101000010 &
b1001001111010010 $
#9899
1!
#9949
0!
b11111011110 )
b101 #
b1000010110101 (
b1000100 '
b1000001101001010 *
b1000011010 &
b1001010011010011 $
b1011 +
s0.4666595458984375 %
#9999
1!
#10049
0!
b101101110010 )
b11 #
b10000001000001 (
b1001110 '
b1010100110100010 *
b1001011000 &
b1001010111010001 $
b1100 +
s0.600006103515625 %
#10099
1!
#10149
0!
b110000111 )
b111111111111111101 #
b100101100000 (
b111111111111111100 '
b1011101101011111 *
b111111111111011000 &
b1001011011001011 $
b1101 +
s0.73333740234375 %
#10199
1!
#10249
0!
b111111010001110001 )
b111111111111111001 #
b111110001111001001 (
b111111111110100010 '
b1010011000000101 *
b111111110100110100 &
b1001011111000001 $
b1100 +
s0.600006103515625 %
#10299
1!
#10349
0!
b111111110001000100 )
b1 #
b111111001000001110 (
b111111111111110001 '
b1000000010111010 *
b111111111110100010 &
b1001100010110011 $
b1011 +
s0.4666595458984375 %
#10399
1!
#10449
0!
b100111010001 )
b110 #
b1011011011001 (
b1010001 '
b1000111011000110 *
b1001110111 &
b1001100110100001 $
b1100 +
s0.600006103515625 %
#10499
1!
#10549
0!
b1011000111 )
b111111111111111110 #
b101010001101 (
b1000 '
b1011010011110000 *
b110111 &
b1001101010001011 $
#10599
1!
#10649
0!
b111111011000000011 )
b111111111111111010 #
b111110100000011111 (
b111111111110101101 '
b1010101010111111 *
b111111110110000111 &
b1001101101110001 $
b1101 +
s0.73333740234375 %
#10699
1!
#10749
0!
b111111001100110100 )
b111111111111111100 #
b111101101100000011 (
b111111111110101000 '
b1000100011100101 *
b111111110101101101 &
b1001110001010011 $
b1100 +
s0.600006103515625 %
#10799
1!
#10849
0!
b111111110111011110 )
b10 #
b111111010001000010 (
b111111111111111111 '
b111101110011101 *
b10001 &
b1001110100110010 $
b1011 +
s0.4666595458984375 %
#10899
1!
#10949
0!
b101110110001 )
b110 #
b1110000101100 (
b1011110 '
b1001010101010000 *
b1011011001 &
b1001111000001100 $
b1100 +
s0.600006103515625 %
#10999
1!
#11049
0!
b10010010111 )
b111111111111111110 #
b1000000101111 (
b10011 '
b1011111011100010 *
b10001111 &
b1001111011100010 $
#11099
1!
#11149
0!
b111111011111000010 )
b111111111111111010 #
b111110110110100011 (
b111111111110111000 '
b1011010100001000 *
b111111110111011011 &
b1001111110110100 $
b1101 +
s0.73333740234375 %
#11199
1!
#11249
0!
b111111010011101000 )
b111111111111111100 #
b111110000001100101 (
b111111111110110011 '
b1001001011111111 *
b111111110110111111 &
b1010000010000010 $
b1100 +
s0.600006103515625 %
#11299
1!
#11349
0!
b111111111110001010 )
b10 #
b111111100110001000 (
b1010 '
b1000010101111110 *
b1100001 &
b1010000101001100 $
b1011 +
s0.4666595458984375 %
#11399
1!
#11449
0!
b110101010100 )
b110 #
b10000101011000 (
b1101000 '
b1001111011111111 *
b1100101000 &
b1010001000010010 $
b1100 +
s0.600006103515625 %
#11499
1!
#11549
0!
b11000110010 )
b111111111111111111 #
b1010101000001 (
b11101 '
b1100100001100001 *
b11011100 &
b1010001011010100 $
#11599
1!
#11649
0!
b111111100101010101 )
b111111111111111011 #
b111111001010011100 (
b111111111111000011 '
b1011111001011000 *
b111111111000100111 &
b1010001110010001 $
b1101 +
s0.73333740234375 %
#11699
1!
#11749
0!
b111111011001110011 )
b111111111111111101 #
b111110010101000100 (
b111111111110111101 '
b1001110000011111 *
b111111111000001011 &
b1010010001001011 $
#11799
1!
#11849
0!
b100001110 )
b11 #
b111111111001001110 (
b10101 '
b1000111001101111 *
b10101011 &
b1010010100000000 $
#11899
1!
#11949
0!
b10000111011 )
b101001000100 (
b1010011111000001 *
b11110010 &
b1010010110110000 $
b1100 +
s0.600006103515625 %
#11999
1!
#12049
0!
b10011010010 )
b1 #
b111001100000 (
b11111 '
b1011010100110010 *
b11110011 &
b1010011001011101 $
#12099
1!
#12149
0!
b111111101001111001 )
b111111111111111011 #
b111111001111100101 (
b111111111111001101 '
b1011101001100110 *
b111111111001111001 &
b1010011100000101 $
b1101 +
s0.73333740234375 %
#12199
1!
#12249
0!
b111111011111100001 )
b111111111111111101 #
b111110100101000000 (
b111111111111000110 '
b1010000010111101 *
b111111111001010101 &
b1010011110101010 $
#12299
1!
#12349
0!
b1001101111 )
b11 #
b1010011001 (
b11101 '
b1001010111101111 *
b11101101 &
b1010100001001001 $
b1100 +
s0.600006103515625 %
#12399
1!
#12449
0!
b10110001101 )
b1 #
b111001110011 (
b100111 '
b1010111110010001 *
b100110001 &
b1010100011100101 $
#12499
1!
#12549
0!
b111111101110000110 )
b111111111111111011 #
b111111011010101111 (
b111111111111010100 '
b1011110011010100 *
b111111111010110010 &
b1010100101111100 $
b1101 +
s0.73333740234375 %
#12599
1!
#12649
0!
b111111100011100110 )
b111111111111111101 #
b111110110001100101 (
b111111111111001100 '
b1010011000010001 *
b111111111010000110 &
b1010101000001111 $
#12699
1!
#12749
0!
b1101100111 )
b11 #
b10110101010 (
b100011 '
b1001101110100100 *
b100011011 &
b1010101010011101 $
b1100 +
s0.600006103515625 %
#12799
1!
#12849
0!
b11001111100 )
b10 #
b1000101101000 (
b101101 '
b1011010100100100 *
b101011110 &
b1010101100100111 $
#12899
1!
#12949
0!
b111111110001101110 )
b111111111111111100 #
b111111100110001100 (
b111111111111011010 '
b1100001000111000 *
b111111111011011110 &
b1010101110101101 $
#12999
1!
#13049
0!
b111111100111000111 )
b111111111111111101 #
b111110111100101100 (
b111111111111010011 '
b1010101101001010 *
b111111111010110001 &
b1010110000101111 $
b1101 +
s0.73333740234375 %
#13099
1!
#13149
0!
b111111100110101101 )
b111111111111111110 #
b111110110010011011 (
b111111111111010101 '
b1010000010110101 *
b111111111011000111 &
b1010110010101011 $
#13199
1!
#13249
0!
b10001111101 )
b100 #
b100010010001 (
b101011 '
b1001111001001011 *
b101010111 &
b1010110100100100 $
b1100 +
s0.600006103515625 %
#13299
1!
#13349
0!
b11110001001 )
b10 #
b1010010100100 (
b110101 '
b1011101010100111 *
b110010001 &
b1010110110011000 $
#13399
1!
#13449
0!
b111111110101101011 )
b111111111111111100 #
b111111110010101111 (
b111111111111100001 '
b1100100000010001 *
b111111111100001111 &
b1010111000001000 $
#13499
1!
#13549
0!
b111111101010111011 )
b111111001000101100 (
b111111111111011001 '
b1011000011110111 *
b111111111011011111 &
b1010111001110011 $
b1101 +
s0.73333740234375 %
#13599
1!
#13649
0!
b111111101010010110 )
b111111111111111110 #
b111110111101111111 (
b111111111111011100 '
b1010011000100110 *
b111111111011110011 &
b1010111011011010 $
#13699
1!
#13749
0!
b10101011101 )
b100 #
b101101011000 (
b110000 '
b1010001110001010 *
b110000010 &
b1010111100111100 $
b1100 +
s0.600006103515625 %
#13799
1!
#13849
0!
b100001100001 )
b10 #
b1011101001101 (
b111010 '
b1011111110110000 *
b110111001 &
b1010111110011001 $
b1101 +
s0.73333740234375 %
#13899
1!
#13949
0!
b111111111000111001 )
b111111111111111100 #
b111111111100111101 (
b111111111111100110 '
b1100110011100011 *
b111111111100110101 &
b1010111111110011 $
b1110 +
s0.866668701171875 %
#13999
1!
#14049
0!
b111111000011101011 )
b111111111111111000 #
b111101100011011110 (
b111111111110001010 '
b1011010110010111 *
b111111110010000110 &
b1011000001000111 $
b1101 +
s0.73333740234375 %
#14099
1!
#14149
0!
b111111100010000000 )
b0 #
b111110011001100001 (
b111111111111011000 '
b1000111011010001 *
b111111111011100110 &
b1011000010011000 $
#14199
1!
#14249
0!
b10111001010 )
b100 #
b101001100100 (
b110110 '
b1001101101101111 *
b110110001 &
b1011000011100011 $
b1100 +
s0.600006103515625 %
#14299
1!
#14349
0!
b100100010110 )
b10 #
b1100100001011 (
b111110 '
b1100000000100010 *
b111100010 &
b1011000100101011 $
b1101 +
s0.73333740234375 %
#14399
1!
#14449
0!
b111111111011100100 )
b111111111111111100 #
b101000111 (
b111111111111101010 '
b1101000000110111 *
b111111111101010100 &
b1011000101101101 $
b1110 +
s0.866668701171875 %
#14499
1!
#14549
0!
b111111000110000100 )
b111111111111111000 #
b111101101011001101 (
b111111111110001110 '
b1011100100110101 *
b111111110010100010 &
b1011000110101011 $
b1101 +
s0.73333740234375 %
#14599
1!
#14649
0!
b111111100100001111 )
b0 #
b111110100000101011 (
b111111111111011011 '
b1001001001000001 *
b111111111100000001 &
b1011000111100101 $
#14699
1!
#14749
0!
b11001010001 )
b100 #
b110000010000 (
b111010 '
b1001111010100010 *
b111001001 &
b1011001000011010 $
b1100 +
s0.600006103515625 %
#14799
1!
#14849
0!
b100110010011 )
b11 #
b1101010011100 (
b1000001 '
b1100001100011111 *
b111111010 &
b1011001001001010 $
b1101 +
s0.73333740234375 %
#14899
1!
#14949
0!
b111111111101011001 )
b111111111111111101 #
b1010111010 (
b111111111111101101 '
b1101001011111110 *
b111111111101101010 &
b1011001001110110 $
b1110 +
s0.866668701171875 %
#14999
1!
#15049
0!
b111111000111110000 )
b111111111111111000 #
b111101110000100101 (
b111111111110010010 '
b1011101111000111 *
b111111110010110110 &
b1011001010011110 $
b1101 +
s0.73333740234375 %
#15099
1!
#15149
0!
b111111100101110010 )
b0 #
b111110100101100111 (
b111111111111011110 '
b1001010010100001 *
b111111111100010101 &
b1011001011000000 $
#15199
1!
#15249
0!
b11010101100 )
b100 #
b110100101111 (
b111100 '
b1010000011001100 *
b111011010 &
b1011001011011110 $
b1100 +
s0.600006103515625 %
#15299
1!
#15349
0!
b100111100100 )
b11 #
b1101110011111 (
b1000011 '
b1100010100010011 *
b1000001000 &
b1011001011111000 $
b1101 +
s0.73333740234375 %
#15399
1!
#15449
0!
b111111111110011111 )
b111111111111111101 #
b1110100000 (
b111111111111101111 '
b1101010010111111 *
b111111111101110111 &
b1011001100001101 $
b1110 +
s0.866668701171875 %
#15499
1!
#15549
0!
b111111001000101110 )
b111111111111111000 #
b111101110011101101 (
b111111111110010011 '
b1011110101010010 *
b111111110011000010 &
b1011001100011101 $
b1101 +
s0.73333740234375 %
#15599
1!
#15649
0!
b111111100110100111 )
b0 #
b111110101000010011 (
b111111111111011111 '
b1001010111110100 *
b111111111100011110 &
b1011001100101001 $
#15699
1!
#15749
0!
b11011010111 )
b101 #
b110110111110 (
b111101 '
b1010000111101011 *
b111100010 &
b1011001100110001 $
b1100 +
s0.600006103515625 %
#15799
1!
#15849
0!
b101000000111 )
b11 #
b1110000010010 (
b1000101 '
b1100010111111110 *
b1000001111 &
b1011001100110011 $
b1101 +
s0.73333740234375 %
#15899
1!
#15949
0!
b111111111110111001 )
b111111111111111101 #
b1111110111 (
b111111111111110000 '
b1101010101110100 *
b111111111101111101 &
b1011001100110001 $
b1110 +
s0.866668701171875 %
#15999
1!
#16049
0!
b111111001001000000 )
b111111111111111000 #
b111101110100100110 (
b111111111110010100 '
b1011110111010011 *
b111111110011000101 &
b1011001100101011 $
b1101 +
s0.73333740234375 %
#16099
1!
#16149
0!
b111111100110101111 )
b0 #
b111110101000110010 (
b111111111111011111 '
b1001011000111111 *
b111111111100100000 &
b1011001100100000 $
#16199
1!
#16249
0!
b11011010110 )
b101 #
b110111000000 (
b111101 '
b1010001000000011 *
b111100001 &
b1011001100010000 $
b1100 +
s0.600006103515625 %
#16299
1!
#16349
0!
b100111111011 )
b11 #
b1101111110110 (
b1000101 '
b1100010111100000 *
b1000001100 &
b1011001011111100 $
b1101 +
s0.73333740234375 %
#16399
1!
#16449
0!
b111111111110100101 )
b111111111111111101 #
b1110111101 (
b111111111111101111 '
b1101010100100001 *
b111111111101111001 &
b1011001011100011 $
b1110 +
s0.866668701171875 %
#16499
1!
#16549
0!
b111111001000100011 )
b111111111111111000 #
b111101110011010001 (
b111111111110010011 '
b1011110101001001 *
b111111110010111111 &
b1011001011000101 $
b1101 +
s0.73333740234375 %
#16599
1!
#16649
0!
b111111100110001000 )
b0 #
b111110100110111111 (
b111111111111011110 '
b1001010110000000 *
b111111111100011000 &
b1011001010100011 $
#16699
1!
#16749
0!
b11010100110 )
b100 #
b110100110000 (
b111100 '
b1010000100001110 *
b111011000 &
b1011001001111101 $
b1100 +
s0.600006103515625 %
#16799
1!
#16849
0!
b100111000011 )
b11 #
b1101101001010 (
b1000010 '
b1100010010110101 *
b1000000001 &
b1011001001010010 $
b1101 +
s0.73333740234375 %
#16899
1!
#16949
0!
b111111111101100100 )
b111111111111111101 #
b1011110110 (
b111111111111101110 '
b1101001111000001 *
b111111111101101010 &
b1011001000100010 $
b1110 +
s0.866668701171875 %
#16999
1!
#17049
0!
b111111000111010110 )
b111111111111111000 #
b111101101111101101 (
b111111111110010001 '
b1011101110110110 *
b111111110010110001 &
b1011000111101110 $
b1101 +
s0.73333740234375 %
#17099
1!
#17149
0!
b111111100100110101 )
b0 #
b111110100010111100 (
b111111111111011100 '
b1001001110111000 *
b111111111100000111 &
b1011000110110101 $
#17199
1!
#17249
0!
b11001001001 )
b100 #
b110000010011 (
b111001 '
b1001111100001110 *
b111000110 &
b1011000101110111 $
b1100 +
s0.600006103515625 %
#17299
1!
#17349
0!
b100101011101 )
b10 #
b1101000010000 (
b1000000 '
b1100001010000010 *
b111101101 &
b1011000100110110 $
b1101 +
s0.73333740234375 %
#17399
1!
